{
  "values": [
    "tutorialmod:raw_sapphire_block",
    "tutorialmod:sapphire_block",
    "tutorialmod:sapphire_ore",
    "tutorialmod:deepslate_sapphire_ore",
    "tutorialmod:nether_sapphire_ore",
    "tutorialmod:end_stone_sapphire_ore"
  ]
}